…
The `geometry` contains both a single point to the district and a
polygon shape.

``` r
points <- st_collection_extract(vienna_districts, type = "POINT")
points %>% select(geometry)
```

    ## Simple feature collection with 23 features and 0 fields
    ## Geometry type: POINT
    ## Dimension:     XY
    ## Bounding box:  xmin: 16.24159 ymin: 48.14328 xmax: 16.49491 ymax: 48.28119
    ## Geodetic CRS:  WGS 84
    ## # A tibble: 23 × 1
    ##               geometry
    ##            <POINT [°]>
    ##  1 (16.32607 48.19547)
    ##  2 (16.34696 48.20252)
    ##  3 (16.39608 48.19376)
    ##  4 (16.34782 48.21103)
    ##  5  (16.3694 48.20836)
    ##  6   (16.2996 48.2154)
    ##  7 (16.35649 48.22281)
    ##  8 (16.42326 48.20363)
    ##  9 (16.31897 48.23555)
    ## 10  (16.2902 48.23372)
    ## # … with 13 more rows
…
``` r
polygons <- st_collection_extract(vienna_districts, type = "POLYGON")
polygons %>% select(geometry)
```

    ## Simple feature collection with 23 features and 0 fields
    ## Geometry type: POLYGON
    ## Dimension:     XY
    ## Bounding box:  xmin: 16.18183 ymin: 48.1179 xmax: 16.57751 ymax: 48.32267
    ## Geodetic CRS:  WGS 84
    ## # A tibble: 23 × 1
    ##                                                                         geometry
    ##                                                                    <POLYGON [°]>
    ##  1 ((16.32732 48.205, 16.32535 48.20531, 16.32373 48.20555, 16.32274 48.20571, …
    ##  2 ((16.33873 48.20854, 16.33845 48.20858, 16.33839 48.2085, 16.33839 48.2085, …
    ##  3 ((16.39662 48.20739, 16.39658 48.20758, 16.39658 48.20759, 16.39657 48.20761…
    ##  4 ((16.34915 48.21516, 16.34895 48.21518, 16.34864 48.21521, 16.34608 48.21537…
    ##  5 ((16.37264 48.21662, 16.37245 48.21676, 16.3724 48.2168, 16.37164 48.21739, …
    ##  6 ((16.27621 48.22704, 16.27612 48.22703, 16.2753 48.22697, 16.27456 48.22692,…
    ##  7 ((16.36165 48.23192, 16.36164 48.23194, 16.36164 48.23195, 16.36163 48.23197…
    ##  8 ((16.40345 48.23192, 16.40266 48.23256, 16.40204 48.23306, 16.40053 48.2343,…
    ##  9 ((16.29502 48.24961, 16.29484 48.24964, 16.29474 48.24966, 16.29469 48.24968…
    ## 10 ((16.28516 48.2568, 16.28515 48.25685, 16.28509 48.25706, 16.28507 48.25712,…
    ## # … with 13 more rows
…
