…
*Note*: The price for gas_station B at 01:00 AM was not recorded/ is
missing.

A simple `complete` would create an undesired result, because undesired
rows would be generated. Since prices in area A are never recorded at
the 01-minute mark, these rows are redundant:

``` r
df2 %>% complete(area, gas_station, time)
```

    ## # A tibble: 36 × 4
    ##     area gas_station time  price
    ##    <dbl> <chr>       <chr> <dbl>
    ##  1     1 A           00:00  1.1 
    ##  2     1 A           00:01 NA   
    ##  3     1 A           01:00  1.11
    ##  4     1 A           01:01 NA   
    ##  5     1 A           02:00  1.12
    ##  6     1 A           02:01 NA   
    ##  7     1 B           00:00  1.1 
    ##  8     1 B           00:01 NA   
    ##  9     1 B           01:00 NA   
    ## 10     1 B           01:01 NA   
    ## # … with 26 more rows
…
A simple complete would generate too many rows:

``` r
df4_missing %>% 
  group_by(area, product) %>% 
  complete(station, station_id, area_id, product_id, time)
```

    ## # A tibble: 30 × 8
    ## # Groups:   area, product [4]
    ##    area   product station station_id area_id product_id time  price
    ##    <chr>  <chr>   <chr>        <dbl>   <dbl>      <dbl> <chr> <dbl>
    ##  1 Berlin Diesel  BP               1       1          2 00:30 NA   
    ##  2 Berlin Diesel  BP               1       1          2 01:30 NA   
    ##  3 Berlin Diesel  BP               1       1          2 02:30 NA   
    ##  4 Berlin Diesel  BP               2       1          2 00:30  1.18
    ##  5 Berlin Diesel  BP               2       1          2 01:30 NA   
    ##  6 Berlin Diesel  BP               2       1          2 02:30  1.02
    ##  7 Berlin Diesel  Shell            1       1          2 00:30  1.19
    ##  8 Berlin Diesel  Shell            1       1          2 01:30  1.15
    ##  9 Berlin Diesel  Shell            1       1          2 02:30  1.09
    ## 10 Berlin Diesel  Shell            2       1          2 00:30 NA   
    ## # … with 20 more rows
…
